^C:\USERS\HOME\SOURCE\REPOS\IIST\IIST\X64\DEBUG\SOURCE.OBJ
C:\PROGRAM FILES (X86)\WINDOWS KITS\10\LIB\10.0.19041.0\UM\X64\KERNEL32.LIB
C:\PROGRAM FILES (X86)\WINDOWS KITS\10\LIB\10.0.19041.0\UM\X64\USER32.LIB
C:\PROGRAM FILES (X86)\WINDOWS KITS\10\LIB\10.0.19041.0\UM\X64\GDI32.LIB
C:\PROGRAM FILES (X86)\WINDOWS KITS\10\LIB\10.0.19041.0\UM\X64\WINSPOOL.LIB
C:\PROGRAM FILES (X86)\WINDOWS KITS\10\LIB\10.0.19041.0\UM\X64\COMDLG32.LIB
C:\PROGRAM FILES (X86)\WINDOWS KITS\10\LIB\10.0.19041.0\UM\X64\ADVAPI32.LIB
C:\PROGRAM FILES (X86)\WINDOWS KITS\10\LIB\10.0.19041.0\UM\X64\SHELL32.LIB
C:\PROGRAM FILES (X86)\WINDOWS KITS\10\LIB\10.0.19041.0\UM\X64\OLE32.LIB
C:\PROGRAM FILES (X86)\WINDOWS KITS\10\LIB\10.0.19041.0\UM\X64\OLEAUT32.LIB
C:\PROGRAM FILES (X86)\WINDOWS KITS\10\LIB\10.0.19041.0\UM\X64\UUID.LIB
C:\PROGRAM FILES (X86)\WINDOWS KITS\10\LIB\10.0.19041.0\UM\X64\ODBC32.LIB
C:\PROGRAM FILES (X86)\WINDOWS KITS\10\LIB\10.0.19041.0\UM\X64\ODBCCP32.LIB
C:\USERS\HOME\SOURCE\REPOS\IIST\IIST\X64\DEBUG\SOURCE.OBJ
C:\USERS\HOME\SOURCE\REPOS\IIST\IIST\X64\DEBUG\IIST.ILK
C:\WINDOWS\SYSTEM32\TZRES.DLL
C:\WINDOWS\GLOBALIZATION\SORTING\SORTDEFAULT.NLS
C:\PROGRAM FILES (X86)\MICROSOFT VISUAL STUDIO\2019\COMMUNITY\VC\TOOLS\MSVC\14.29.30037\LIB\X64\MSVCPRTD.LIB
C:\PROGRAM FILES (X86)\MICROSOFT VISUAL STUDIO\2019\COMMUNITY\VC\TOOLS\MSVC\14.29.30037\LIB\X64\MSVCRTD.LIB
C:\PROGRAM FILES (X86)\MICROSOFT VISUAL STUDIO\2019\COMMUNITY\VC\TOOLS\MSVC\14.29.30037\LIB\X64\OLDNAMES.LIB
C:\PROGRAM FILES (X86)\MICROSOFT VISUAL STUDIO\2019\COMMUNITY\VC\TOOLS\MSVC\14.29.30037\LIB\X64\VCRUNTIMED.LIB
C:\PROGRAM FILES (X86)\WINDOWS KITS\10\LIB\10.0.19041.0\UCRT\X64\UCRTD.LIB
